# Fdb version 3
["bibtex tesis-usach"] 1461088463 "tesis-usach.aux" "tesis-usach.bbl" "tesis-usach" 1461088467
  "./apa-good.bst" 1461081719 29530 55b690a27463307a45745a35fd3e702e ""
  "anexos/Anexo-1.aux" 1461088466 2115 795b774c88603b707463b229b5abaca7 ""
  "bibliografia.bib" 1461081719 46012 91d72b791a095b8bed808702f4b61aff ""
  "chapters/1-Introduccion.aux" 1461088465 5280 9333551cb1cdfe2403a0bbbf9fee1f91 ""
  "chapters/2-Cuerpo.aux" 1461088466 10020 08280b3974640b97e820f79a1bf48397 ""
  "chapters/3-Conclusiones.aux" 1461088466 1757 87048b9a27343460d7b61741e4e7ffa9 ""
  "preliminares/abstract.aux" 1461088465 1486 86cdcc5d1416710b639e719ca8d82fc5 ""
  "preliminares/agradecimiento.aux" 1461088465 1492 c3ea97af7f5c25eea0e5f1c31db0110b ""
  "preliminares/cubierta.aux" 1461088465 1486 87f7302d754f3867b335a70e2954d3a1 ""
  "preliminares/dedicatoria.aux" 1461088465 1489 88b3b644482894399bf9539f9d04b24a ""
  "tesis-usach.aux" 1461088466 3505 c9323a3d2864aaf28f13b5c579b3363f ""
  "tesis-usach.bcf" 0 -1 0 ""
  (generated)
  "tesis-usach.bbl"
  "tesis-usach.blg"
["pdflatex"] 1461088463 "tesis-usach.tex" "tesis-usach.pdf" "tesis-usach" 1461088467
  "/etc/texmf/web2c/texmf.cnf" 1441046226 1101 af7716885e081ab43982cab7b4672c1a ""
  "/usr/share/texlive/texmf-dist/fonts/map/fontname/texfonts.map" 1272929888 3287 e6b82fe08f5336d4d5ebc73fb1152e87 ""
  "/usr/share/texlive/texmf-dist/fonts/tfm/adobe/zapfding/pzdr.tfm" 1136768653 1528 f853c4d1b4e0550255e02831fdc8496f ""
  "/usr/share/texlive/texmf-dist/fonts/tfm/jknappen/ec/ectt1000.tfm" 1136768653 1536 06717a2b50de47d4087ac0e6cd759455 ""
  "/usr/share/texlive/texmf-dist/fonts/tfm/jknappen/ec/tcrm0500.tfm" 1136768653 1536 b3387106d9afecbfe14bde2de6eadf47 ""
  "/usr/share/texlive/texmf-dist/fonts/tfm/jknappen/ec/tcrm0700.tfm" 1136768653 1536 73da8e8f1d2a4c957d51ca133585586b ""
  "/usr/share/texlive/texmf-dist/fonts/tfm/jknappen/ec/tcrm1000.tfm" 1136768653 1536 e07581a4bb3136ece9eeb4c3ffab8233 ""
  "/usr/share/texlive/texmf-dist/fonts/tfm/public/amsfonts/cmextra/cmex7.tfm" 1246382020 1004 54797486969f23fa377b128694d548df ""
  "/usr/share/texlive/texmf-dist/fonts/tfm/public/amsfonts/euler/eurm10.tfm" 1246382020 1228 9be37fdf0dc0e1f4df4af3594876d628 ""
  "/usr/share/texlive/texmf-dist/fonts/tfm/public/amsfonts/euler/eurm5.tfm" 1246382020 1228 6fc4d2f2c0a79dc4f413411f6e2f336c ""
  "/usr/share/texlive/texmf-dist/fonts/tfm/public/amsfonts/euler/eurm7.tfm" 1246382020 1228 22a83614922c993c1b2e124955a38ca1 ""
  "/usr/share/texlive/texmf-dist/fonts/tfm/public/amsfonts/symbols/msam10.tfm" 1246382020 916 f87d7c45f9c908e672703b83b72241a3 ""
  "/usr/share/texlive/texmf-dist/fonts/tfm/public/amsfonts/symbols/msam5.tfm" 1246382020 924 9904cf1d39e9767e7a3622f2a125a565 ""
  "/usr/share/texlive/texmf-dist/fonts/tfm/public/amsfonts/symbols/msam7.tfm" 1246382020 928 2dc8d444221b7a635bb58038579b861a ""
  "/usr/share/texlive/texmf-dist/fonts/tfm/public/amsfonts/symbols/msbm10.tfm" 1246382020 908 2921f8a10601f252058503cc6570e581 ""
  "/usr/share/texlive/texmf-dist/fonts/tfm/public/amsfonts/symbols/msbm5.tfm" 1246382020 940 75ac932a52f80982a9f8ea75d03a34cf ""
  "/usr/share/texlive/texmf-dist/fonts/tfm/public/amsfonts/symbols/msbm7.tfm" 1246382020 940 228d6584342e91276bf566bcf9716b83 ""
  "/usr/share/texlive/texmf-dist/fonts/tfm/public/latex-fonts/lasy10.tfm" 1136768653 520 82a3d37183f34b6eb363a161dfc002c2 ""
  "/usr/share/texlive/texmf-dist/fonts/tfm/public/latex-fonts/lasy5.tfm" 1136768653 520 d082ac03a1087bc1ec2a06e24a9f68c0 ""
  "/usr/share/texlive/texmf-dist/fonts/tfm/public/latex-fonts/lasy7.tfm" 1136768653 520 a74c6ed8cb48679fdc3ea874d9d34a7e ""
  "/usr/share/texlive/texmf-dist/fonts/tfm/public/rsfs/rsfs10.tfm" 1229303445 688 37338d6ab346c2f1466b29e195316aa4 ""
  "/usr/share/texlive/texmf-dist/fonts/tfm/public/rsfs/rsfs5.tfm" 1229303445 684 3a51bd4fd9600428d5264cf25f04bb9a ""
  "/usr/share/texlive/texmf-dist/fonts/tfm/public/rsfs/rsfs7.tfm" 1229303445 692 1b6510779f0f05e9cbf03e0f6c8361e6 ""
  "/usr/share/texlive/texmf-dist/fonts/tfm/public/stmaryrd/stmary10.tfm" 1302307949 848 f478e0761563bbc369eca609a1741348 ""
  "/usr/share/texlive/texmf-dist/fonts/tfm/public/stmaryrd/stmary5.tfm" 1302307949 848 e1bc58a31b9ed9c3729ffea165acfaac ""
  "/usr/share/texlive/texmf-dist/fonts/tfm/public/stmaryrd/stmary7.tfm" 1302307949 848 26631fcb3e4cb6757598b9cda7967b63 ""
  "/usr/share/texlive/texmf-dist/tex/generic/babel-english/english.ldf" 1367878877 6963 2e0cb3d93aa64508bdb0db58ae900d97 ""
  "/usr/share/texlive/texmf-dist/tex/generic/babel/babel.def" 1386115319 44590 cbeafe75704649248599c30a21c5b6b4 ""
  "/usr/share/texlive/texmf-dist/tex/generic/babel/babel.sty" 1386115319 13137 13771490521d3a894d51a173ece7013a ""
  "/usr/share/texlive/texmf-dist/tex/generic/babel/xebabel.def" 1381618108 3040 ab0d214717ddce7e987e188798359ed5 ""
  "/usr/share/texlive/texmf-dist/tex/generic/epsf/epsf.sty" 1298075956 27123 4572e7b856182a1e6e9df1c7cc21de80 ""
  "/usr/share/texlive/texmf-dist/tex/generic/ifxetex/ifxetex.sty" 1284331290 1458 43ab4710dc82f3edeabecd0d099626b2 ""
  "/usr/share/texlive/texmf-dist/tex/generic/oberdiek/gettitlestring.sty" 1303254447 8237 52810bdb4db2270e717422560a104aea ""
  "/usr/share/texlive/texmf-dist/tex/generic/oberdiek/hobsub-generic.sty" 1338332114 189108 8b3553a56c83ff61acecb36b75d817e2 ""
  "/usr/share/texlive/texmf-dist/tex/generic/oberdiek/hobsub-hyperref.sty" 1338332114 70752 45fa392800e07da61fa13446ad46b34d ""
  "/usr/share/texlive/texmf-dist/tex/generic/oberdiek/ifpdf.sty" 1303254447 7140 ece2cc23d9f20e1f53975ac167f42d3e ""
  "/usr/share/texlive/texmf-dist/tex/generic/oberdiek/se-ascii-print.def" 1335995445 3154 c8d7dcc61fa68a383356ee2a1d23927e ""
  "/usr/share/texlive/texmf-dist/tex/generic/oberdiek/stringenc.sty" 1335995445 21411 70ecd8a9f06f9e1b670126554a62ea3e ""
  "/usr/share/texlive/texmf-dist/tex/latex/algorithm2e/algorithm2e.sty" 1357515851 138649 9b25c6203fed00aa0591833fc72e9128 ""
  "/usr/share/texlive/texmf-dist/tex/latex/algorithms/algorithmic.sty" 1251330371 9318 793e9d5a71e74e730d97f6bf5d7e2bca ""
  "/usr/share/texlive/texmf-dist/tex/latex/amscls/amsthm.sty" 1361575838 13294 f63af559496acbb4ffecc2de353745eb ""
  "/usr/share/texlive/texmf-dist/tex/latex/amsfonts/amsfonts.sty" 1359763108 5949 3f3fd50a8cc94c3d4cbf4fc66cd3df1c ""
  "/usr/share/texlive/texmf-dist/tex/latex/amsfonts/amssymb.sty" 1359763108 13829 94730e64147574077f8ecfea9bb69af4 ""
  "/usr/share/texlive/texmf-dist/tex/latex/amsfonts/umsa.fd" 1359763108 961 6518c6525a34feb5e8250ffa91731cff ""
  "/usr/share/texlive/texmf-dist/tex/latex/amsfonts/umsb.fd" 1359763108 961 d02606146ba5601b5645f987c92e6193 ""
  "/usr/share/texlive/texmf-dist/tex/latex/amsmath/amsbsy.sty" 1362954379 2412 2d98314dc5be38f455f8890deeb2d091 ""
  "/usr/share/texlive/texmf-dist/tex/latex/amsmath/amsgen.sty" 1362954379 4357 ad30ad08920902fc9b38caf35a3b0496 ""
  "/usr/share/texlive/texmf-dist/tex/latex/amsmath/amsmath.sty" 1362954379 79178 b2e326c351e876df0e5e23df2e02441b ""
  "/usr/share/texlive/texmf-dist/tex/latex/amsmath/amsopn.sty" 1362954379 4082 502152465aedb8f6a3c4b0b7c0fa8ae5 ""
  "/usr/share/texlive/texmf-dist/tex/latex/amsmath/amstext.sty" 1362954379 2637 846ebe982d3549c7ede7ce135456f54a ""
  "/usr/share/texlive/texmf-dist/tex/latex/appendix/appendix.sty" 1252539595 8526 d0d9b5e2dd0c996c69c3bd05eb25b943 ""
  "/usr/share/texlive/texmf-dist/tex/latex/babelbib/babelbib.sty" 1327967917 14790 cdfc228d970784f3651cf9ab004c00e5 ""
  "/usr/share/texlive/texmf-dist/tex/latex/babelbib/english.bdf" 1327967917 10163 646cf3f080480bebab83e276a4f61bab ""
  "/usr/share/texlive/texmf-dist/tex/latex/base/bk10.clo" 1254151887 8882 41e4149a0e29b927a7d5a0e13d2ebab4 ""
  "/usr/share/texlive/texmf-dist/tex/latex/base/book.cls" 1254151887 23695 94c3d869be52f7302728a4358b7372c2 ""
  "/usr/share/texlive/texmf-dist/tex/latex/base/fixltx2e.sty" 1254151887 13911 4b3a73865fcc0c61d65cc1505cdda4e5 ""
  "/usr/share/texlive/texmf-dist/tex/latex/base/fontenc.sty" 1254151887 4435 b97063eb2f20be499e7725926af85c55 ""
  "/usr/share/texlive/texmf-dist/tex/latex/base/ifthen.sty" 1254151887 5022 2ec7815b07dc68e65542e23a180bc839 ""
  "/usr/share/texlive/texmf-dist/tex/latex/base/inputenc.sty" 1254151887 4388 1cb2ca8d423695bd22ea8d126c276f33 ""
  "/usr/share/texlive/texmf-dist/tex/latex/base/latexsym.sty" 1254151887 2717 322ad1a37c6c9974574bf6f55cbc9d77 ""
  "/usr/share/texlive/texmf-dist/tex/latex/base/textcomp.sty" 1312312491 15509 394096bec6a284398e0b3ead6d33977e ""
  "/usr/share/texlive/texmf-dist/tex/latex/base/ts1cmr.fd" 1254151887 2070 a9b43c0e3cee84bb3927d80d70ee10ce ""
  "/usr/share/texlive/texmf-dist/tex/latex/base/ts1enc.def" 1254151887 7630 8f51e48866ebfd08b8299888bbe81549 ""
  "/usr/share/texlive/texmf-dist/tex/latex/base/ulasy.fd" 1254151887 1873 1e483a609ec3be8f16f6337fa0dc20e3 ""
  "/usr/share/texlive/texmf-dist/tex/latex/booktabs/booktabs.sty" 1211777752 6375 989ecfb545a13610facc71ae7e40ced1 ""
  "/usr/share/texlive/texmf-dist/tex/latex/caption/caption.sty" 1368312746 65148 c61accbd2b9a5316d9be0887ec48d722 ""
  "/usr/share/texlive/texmf-dist/tex/latex/caption/caption3.sty" 1368312746 62748 b02c0dc118f5f35146d37cec569e83b1 ""
  "/usr/share/texlive/texmf-dist/tex/latex/caption/ltcaption.sty" 1360019375 6681 79588c96d214097730f021722fa0d151 ""
  "/usr/share/texlive/texmf-dist/tex/latex/colortbl/colortbl.sty" 1329267615 10607 9635c8e2bffccf182429bfdea9b665a5 ""
  "/usr/share/texlive/texmf-dist/tex/latex/eepic/eepic.sty" 1137110077 17662 c85d6c04287ee4592a15f6d02221d58f ""
  "/usr/share/texlive/texmf-dist/tex/latex/eepic/epic.sty" 1247274248 25873 0e813d2f6e266780f0cedef5eb5e2525 ""
  "/usr/share/texlive/texmf-dist/tex/latex/etex-pkg/etex.sty" 1214928088 15274 9f6a2469ac8ebe6168e12b8f32cbe599 ""
  "/usr/share/texlive/texmf-dist/tex/latex/etoolbox/etoolbox.sty" 1294098555 41188 02561c41bb08b479074b6e76f0b7d639 ""
  "/usr/share/texlive/texmf-dist/tex/latex/euenc/eu1enc.def" 1284849341 1115 6f8850603672e58af2cd599bee6ade7d ""
  "/usr/share/texlive/texmf-dist/tex/latex/euenc/eu1lmr.fd" 1266195411 2284 11da099e92da4724f712149045c96354 ""
  "/usr/share/texlive/texmf-dist/tex/latex/euenc/eu1lmss.fd" 1266195411 1546 f73305b0ca2520efb4953d14dfcb9cb7 ""
  "/usr/share/texlive/texmf-dist/tex/latex/euenc/eu1lmtt.fd" 1266195411 2375 048018091c9aef586c688eaf2feff1a1 ""
  "/usr/share/texlive/texmf-dist/tex/latex/fancybox/fancybox.sty" 1274111957 27261 5ae6156674330dc345adb79b6e5d8966 ""
  "/usr/share/texlive/texmf-dist/tex/latex/fancyhdr/fancyhdr.sty" 1160175134 20521 e5d13d98d57bd53d4fed3aa61bd29c86 ""
  "/usr/share/texlive/texmf-dist/tex/latex/fancyvrb/fancyvrb.sty" 1274829816 45360 a0833d32f1b541964596b02870342d5a ""
  "/usr/share/texlive/texmf-dist/tex/latex/float/float.sty" 1137110151 6749 16d2656a1984957e674b149555f1ea1d ""
  "/usr/share/texlive/texmf-dist/tex/latex/fontspec/fontspec-patches.sty" 1369177509 3776 ae6208118ce42d8edee845bfcbbfba85 ""
  "/usr/share/texlive/texmf-dist/tex/latex/fontspec/fontspec-xetex.sty" 1369177509 85048 a760b1cc28a1f64bca53e4ddd1adb4ef ""
  "/usr/share/texlive/texmf-dist/tex/latex/fontspec/fontspec.cfg" 1284849391 216 8835bd68d0b21e3df98697b681d8364f ""
  "/usr/share/texlive/texmf-dist/tex/latex/fontspec/fontspec.sty" 1369177509 9565 f9ec1d8d5e5344cdfa4f4e6c30e6dd3e ""
  "/usr/share/texlive/texmf-dist/tex/latex/geometry/geometry.sty" 1284422013 40502 e003406220954b0716679d7928aedd8a ""
  "/usr/share/texlive/texmf-dist/tex/latex/graphics/color.sty" 1156702488 6406 6f55214ce374a5b186b8781f4796f1f9 ""
  "/usr/share/texlive/texmf-dist/tex/latex/graphics/graphics.sty" 1254151804 14183 42a8fc761b806986eef292369afc2988 ""
  "/usr/share/texlive/texmf-dist/tex/latex/graphics/graphicx.sty" 1156702488 7882 3bd78469d444e8d494e27cfd7ca92719 ""
  "/usr/share/texlive/texmf-dist/tex/latex/graphics/keyval.sty" 1156702488 2266 7054435e4584a41cf53b0a7ca624d0cb ""
  "/usr/share/texlive/texmf-dist/tex/latex/graphics/lscape.sty" 1156702488 1475 c890537707f4b8611b7e92b8eb7f49aa ""
  "/usr/share/texlive/texmf-dist/tex/latex/graphics/trig.sty" 1156702488 3153 c50e6bd54d2dd3933fc52bcf369bec4a ""
  "/usr/share/texlive/texmf-dist/tex/latex/hyperref/hxetex.def" 1352416072 44958 bfa1a9a3364a325e541cf3ab22104dc1 ""
  "/usr/share/texlive/texmf-dist/tex/latex/hyperref/hyperref.sty" 1352416072 231792 5fc9dc7dd667e773a766ecc63bba7f4b ""
  "/usr/share/texlive/texmf-dist/tex/latex/hyperref/nameref.sty" 1351899753 12847 25b617d63258c4f72870c883493a3cf8 ""
  "/usr/share/texlive/texmf-dist/tex/latex/hyperref/pd1enc.def" 1352416072 14005 155ac8fad2e5dd7c2cdd130fabd96633 ""
  "/usr/share/texlive/texmf-dist/tex/latex/hyperref/puenc.def" 1352416072 122263 ec12fdd2044f1507e5ae92ee7a5bbfae ""
  "/usr/share/texlive/texmf-dist/tex/latex/jknapltx/mathrsfs.sty" 1137110241 300 12fa6f636b617656f2810ee82cb05015 ""
  "/usr/share/texlive/texmf-dist/tex/latex/jknapltx/ursfs.fd" 1137110241 548 cc4e3557704bfed27c7002773fad6c90 ""
  "/usr/share/texlive/texmf-dist/tex/latex/l3kernel/expl3.sty" 1389135963 13702 32bd854cda89e9cbc752000eb5050133 ""
  "/usr/share/texlive/texmf-dist/tex/latex/l3kernel/l3basics.sty" 1389135963 31882 d8562c33e88eb0a3c61b855de788c166 ""
  "/usr/share/texlive/texmf-dist/tex/latex/l3kernel/l3bootstrap.sty" 1389135963 7659 3b527d802660b0027b488281a2283d27 ""
  "/usr/share/texlive/texmf-dist/tex/latex/l3kernel/l3box.sty" 1375048433 11043 28f6c6462c9d97c63accc3d0218f8895 ""
  "/usr/share/texlive/texmf-dist/tex/latex/l3kernel/l3candidates.sty" 1389135963 36583 bff38e31538f090c8d189ff0c9e42c40 ""
  "/usr/share/texlive/texmf-dist/tex/latex/l3kernel/l3clist.sty" 1375048433 16259 413a31ee439e8fa54783c8a0f93f77db ""
  "/usr/share/texlive/texmf-dist/tex/latex/l3kernel/l3coffins.sty" 1388616988 31250 b1ad2c0085e23c9258e129ec1f721c81 ""
  "/usr/share/texlive/texmf-dist/tex/latex/l3kernel/l3color.sty" 1346435935 2332 c2c00b7482ea194bbdab8ee387421171 ""
  "/usr/share/texlive/texmf-dist/tex/latex/l3kernel/l3expan.sty" 1389135963 16350 b12958a90466c374efb8313fded959e4 ""
  "/usr/share/texlive/texmf-dist/tex/latex/l3kernel/l3file.sty" 1381789809 18829 b233502287b49b31429390eb038eedde ""
  "/usr/share/texlive/texmf-dist/tex/latex/l3kernel/l3fp.sty" 1389135963 189171 365a7b99569d4f29bf6bbcf4ea821bf5 ""
  "/usr/share/texlive/texmf-dist/tex/latex/l3kernel/l3int.sty" 1381277850 22825 5c0ca9494e177f123cf967a46f2fbb40 ""
  "/usr/share/texlive/texmf-dist/tex/latex/l3kernel/l3keys.sty" 1388616988 30214 77d8525bc2bb248b691a06fa736c99af ""
  "/usr/share/texlive/texmf-dist/tex/latex/l3kernel/l3luatex.sty" 1375048433 5908 d4624ab117b929bcdbb742b275fa53c0 ""
  "/usr/share/texlive/texmf-dist/tex/latex/l3kernel/l3msg.sty" 1375048433 26420 4e3ce16d867f1f052212a9f84c7fe78a ""
  "/usr/share/texlive/texmf-dist/tex/latex/l3kernel/l3names.sty" 1389135963 30606 14bf27c54a27d596affc4d46db658f5c ""
  "/usr/share/texlive/texmf-dist/tex/latex/l3kernel/l3prg.sty" 1389135963 11855 7228ac725aac5778f141c54243029b32 ""
  "/usr/share/texlive/texmf-dist/tex/latex/l3kernel/l3prop.sty" 1388616988 10636 207a579c352f87e71b4825978b222eb3 ""
  "/usr/share/texlive/texmf-dist/tex/latex/l3kernel/l3quark.sty" 1388616988 5290 ab2a0254bfa14d5a586c5fe0fc9c0f8e ""
  "/usr/share/texlive/texmf-dist/tex/latex/l3kernel/l3seq.sty" 1388616988 17921 9e29c609f42ec0510d1de6079337756d ""
  "/usr/share/texlive/texmf-dist/tex/latex/l3kernel/l3skip.sty" 1375048433 15513 090b7d1598b55ad9e92866b461414ea0 ""
  "/usr/share/texlive/texmf-dist/tex/latex/l3kernel/l3tl.sty" 1388616988 25912 70f28be46fc8128dec7115f9bbc84ecf ""
  "/usr/share/texlive/texmf-dist/tex/latex/l3kernel/l3token.sty" 1381277850 24973 abc0863844c089e8122103e3eac0d5a5 ""
  "/usr/share/texlive/texmf-dist/tex/latex/l3packages/xparse/xparse.sty" 1388616988 56461 9e4b18409799e3d28c8e9d0f5b500179 ""
  "/usr/share/texlive/texmf-dist/tex/latex/latexconfig/color.cfg" 1254097189 802 7b8c8d72c24d795ed7720e4dfd29bff3 ""
  "/usr/share/texlive/texmf-dist/tex/latex/latexconfig/graphics.cfg" 1278958963 3563 d35e897cae3b8c6848f6677b73370b54 ""
  "/usr/share/texlive/texmf-dist/tex/latex/latexconfig/hyperref.cfg" 1254097189 235 6031e5765137be07eed51a510b2b8fb7 ""
  "/usr/share/texlive/texmf-dist/tex/latex/listings/listings.cfg" 1377891227 1828 ad5c0bfd4bb17a6203cea3ae8bc2fa61 ""
  "/usr/share/texlive/texmf-dist/tex/latex/listings/listings.sty" 1377891227 80230 19b50098b82bdd21a0af91338601a7b9 ""
  "/usr/share/texlive/texmf-dist/tex/latex/listings/lstlang1.sty" 1377891227 91259 82f1248e700e917b666f25c73749322f ""
  "/usr/share/texlive/texmf-dist/tex/latex/listings/lstmisc.sty" 1377891227 77029 23e93e39002d9a323237b9331888f966 ""
  "/usr/share/texlive/texmf-dist/tex/latex/marvosym/marvosym.sty" 1333989323 9393 ceaf2ea8eb2c81fdb168323fc5fffc89 ""
  "/usr/share/texlive/texmf-dist/tex/latex/mathcomp/mathcomp.sty" 1137110324 1664 5b1a6a9b94bdeda98a6e667907be0af1 ""
  "/usr/share/texlive/texmf-dist/tex/latex/multirow/multirow.sty" 1137110401 7374 f7c1f13fc632dd5c9b220a247d233082 ""
  "/usr/share/texlive/texmf-dist/tex/latex/natbib/natbib.sty" 1392645748 45458 f1c6cb3edd91174e966cbbaf88993bcf ""
  "/usr/share/texlive/texmf-dist/tex/latex/oberdiek/auxhook.sty" 1303254447 3834 707ef09f31d7d2ea47ba89974755dfe0 ""
  "/usr/share/texlive/texmf-dist/tex/latex/oberdiek/hypcap.sty" 1335995445 3720 f909bdc3fac6af505c1f55366aa4d44c ""
  "/usr/share/texlive/texmf-dist/tex/latex/oberdiek/kvoptions.sty" 1335995445 22417 c74ff4af6a1aa2b65d1924020edbbe11 ""
  "/usr/share/texlive/texmf-dist/tex/latex/oberdiek/rerunfilecheck.sty" 1303254447 9581 1158efc648bc09d5064db5703c882159 ""
  "/usr/share/texlive/texmf-dist/tex/latex/psfrag/psfrag.sty" 1137110621 7349 04574cd13971edb76f06a9e2e9a108d9 ""
  "/usr/share/texlive/texmf-dist/tex/latex/relsize/relsize.sty" 1369619135 15542 c4cc3164fe24f2f2fbb06eb71b1da4c4 ""
  "/usr/share/texlive/texmf-dist/tex/latex/setspace/setspace.sty" 1324344192 22913 a27d7908fc6f0385466454a966a316eb ""
  "/usr/share/texlive/texmf-dist/tex/latex/soul/soul.sty" 1137110840 23636 c37eef0334dd2011d112d2040c11328f ""
  "/usr/share/texlive/texmf-dist/tex/latex/stmaryrd/Ustmry.fd" 1137110872 1766 216b0f832c406513647608b5bb9bb8ff ""
  "/usr/share/texlive/texmf-dist/tex/latex/stmaryrd/stmaryrd.sty" 1302307949 11080 aa7f81da60ce104f0dbb8b827dd14383 ""
  "/usr/share/texlive/texmf-dist/tex/latex/subfig/subfig.sty" 1158586182 21369 9ef165ca6df8815c92e693146a376c92 ""
  "/usr/share/texlive/texmf-dist/tex/latex/titlesec/titlesec.sty" 1324083561 37083 54a2e11f0f208916a9976d9e4837d144 ""
  "/usr/share/texlive/texmf-dist/tex/latex/tocbibind/tocbibind.sty" 1287012853 8927 46f54e33fc9cef24f78ab3bc811cb63f ""
  "/usr/share/texlive/texmf-dist/tex/latex/tocloft/tocloft.sty" 1367531278 34706 345df874e59e023274392bd0cf090d66 ""
  "/usr/share/texlive/texmf-dist/tex/latex/tools/array.sty" 1254151720 13146 3e38b06d6e7ca62ce1bdb63b0d6148a5 ""
  "/usr/share/texlive/texmf-dist/tex/latex/tools/enumerate.sty" 1254151720 3328 485bddd4058e8ddb2a8849a8d397dcbc ""
  "/usr/share/texlive/texmf-dist/tex/latex/tools/indentfirst.sty" 1254151720 1478 046fd21942e354e54b4d3bcea822de4b ""
  "/usr/share/texlive/texmf-dist/tex/latex/tools/longtable.sty" 1254151720 11948 81a7677988a1aa6fe0c169167e78a0d7 ""
  "/usr/share/texlive/texmf-dist/tex/latex/tools/verbatim.sty" 1312409015 7125 6b8323deb5c5c3a19b248762654143eb ""
  "/usr/share/texlive/texmf-dist/tex/latex/tools/xspace.sty" 1312409015 4405 b7f0681f78908bf1aa3cd73228e9fd38 ""
  "/usr/share/texlive/texmf-dist/tex/latex/units/nicefrac.sty" 1137111039 4029 0462ee5ab265cf59dc15a41a3b883101 ""
  "/usr/share/texlive/texmf-dist/tex/latex/units/units.sty" 1137111039 2134 65ad9fb19763b1681bea4cb389fe84f8 ""
  "/usr/share/texlive/texmf-dist/tex/latex/url/url.sty" 1388531844 12796 8edb7d69a20b857904dd0ea757c14ec9 ""
  "/usr/share/texlive/texmf-dist/tex/latex/was/upgreek.sty" 1137111079 5794 9054e31be15d93f1e6bd28cca2b6643f ""
  "/usr/share/texlive/texmf-dist/tex/xelatex/xetex-def/xetex.def" 1369690666 15133 89e5eeafb0aa4a3a94dfe51054979861 ""
  "/usr/share/texlive/texmf-dist/tex/xelatex/xunicode/xunicode.sty" 1315783907 205722 8027ed7ab2230086d647802c25f3ee42 ""
  "/usr/share/texlive/texmf-dist/web2c/texmf.cnf" 1392645748 31083 1dfd8bf685ce0009c40532fedf8a7c53 ""
  "/usr/share/texmf/tex/latex/tipa/t3cmr.fd" 1348131524 1257 fd5b1c2f0106f9cf12cdb2ff961987c5 ""
  "/usr/share/texmf/tex/latex/tipa/t3enc.def" 1348131524 26483 c461a68c34040cb0d96c43e86c012a6d ""
  "/usr/share/texmf/tex/latex/xcolor/xcolor.sty" 1339578534 55224 a43bab84e0ac5e6efcaf9a98bde73a94 ""
  "/usr/share/texmf/web2c/texmf.cnf" 1392645748 31083 1dfd8bf685ce0009c40532fedf8a7c53 ""
  "/var/lib/texmf/web2c/xetex/xelatex.fmt" 1441046333 3164300 e4ce190a4fc2b5159134a08f7f0aaac7 ""
  "anexos/Anexo-1.aux" 1461088466 2115 795b774c88603b707463b229b5abaca7 ""
  "anexos/Anexo-1.tex" 1461081719 4882 324b61e818cd581018ab6b3bff935cc3 ""
  "chapters/1-Introduccion.aux" 1461088465 5280 9333551cb1cdfe2403a0bbbf9fee1f91 ""
  "chapters/1-Introduccion.tex" 1461088460 23126 c4d2414fa314e4d46b1d833449cc8151 ""
  "chapters/2-Cuerpo.aux" 1461088466 10020 08280b3974640b97e820f79a1bf48397 ""
  "chapters/2-Cuerpo.tex" 1461087728 27596 071cdb4ed85ed7b24fa8d94e272a12f6 ""
  "chapters/3-Conclusiones.aux" 1461088466 1757 87048b9a27343460d7b61741e4e7ffa9 ""
  "chapters/3-Conclusiones.tex" 1461081719 132 f5e070c6322623e729382dec701e58ef ""
  "images/HLTau_B3total.png" 1461081719 214094 0980f5859337c550c2d81471b1d420c9 ""
  "images/HLTau_B6antennas1.png" 1461081719 64654 cff93fbe7c4710d4929367ffc164addc ""
  "images/HLTau_B6antennasCenter.png" 1461081719 49508 587cb96b4fed2ce0b778763448a272a0 ""
  "images/HLTau_B6total.png" 1461081719 62294 1a3aac3d737ea33af2bdd76a728c3714 ""
  "images/HLTau_B7total.png" 1461081719 53071 746cdf3f97644a03987ec12589f7c7b3 ""
  "images/LogoUsach.png" 1461081719 86086 89f3946d6821a855f31597547420384e ""
  "images/antenas.png" 1461081719 12386 91b5a72eeda244fa770ad159b27ee955 ""
  "images/ecuatorial1.png" 1461081719 11951 2abe5601f5bfa2832a3163b72ee11050 ""
  "images/ecuatorial2.png" 1461081719 118378 7b9443de832d3921dd8fcca5c4c3fcef ""
  "images/frecuencias.png" 1461081719 80625 c22170231809b17d505b0ebbf1946846 ""
  "images/horizontales.png" 1461081719 171022 dcec7146d8f5f55ea7e42603d706d25c ""
  "images/licenses/cc_by.png" 1461081719 4739 6ff8ed82f42f1e6d3bb3fc1210018332 ""
  "images/uvplane1.png" 1461081719 24091 57559e088a2f527f0dee67f51f8105e5 ""
  "images/uvplane2.png" 1461081719 143514 305d3118892533eee04aba2ff8b54fe6 ""
  "preliminares/abstract.aux" 1461088465 1486 86cdcc5d1416710b639e719ca8d82fc5 ""
  "preliminares/abstract.tex" 1461081719 1705 5b44699107a5ac45a23e75559cc42dd0 ""
  "preliminares/agradecimiento.aux" 1461088465 1492 c3ea97af7f5c25eea0e5f1c31db0110b ""
  "preliminares/agradecimiento.tex" 1461081719 140 6323fbae0747101e4a3a21f52de5e824 ""
  "preliminares/cubierta.aux" 1461088465 1486 87f7302d754f3867b335a70e2954d3a1 ""
  "preliminares/cubierta.tex" 1461081719 684 098b794dcd6d449fc2a8b8758d5fd2e6 ""
  "preliminares/dedicatoria.aux" 1461088465 1489 88b3b644482894399bf9539f9d04b24a ""
  "preliminares/dedicatoria.tex" 1461081719 114 d8fe3298c86d59d98ac5f7a90e7f9863 ""
  "tesis-enumeracion.sty" 1461081719 338 21d7046d62276f470cfc67142c10ba68 ""
  "tesis-usach.aux" 1461088466 3505 c9323a3d2864aaf28f13b5c579b3363f ""
  "tesis-usach.bbl" 1461088463 9187 56e744e5566bad8568b76cceb029a563 "bibtex tesis-usach"
  "tesis-usach.cls" 1461081719 16657 8f550f92137afc9bd5887fb3884a5da0 ""
  "tesis-usach.loa" 1461088466 236 233b19d304627833d3f26deb68680d2d ""
  "tesis-usach.lof" 1461088466 2764 7d0aa0b42d3baa90508269c9304426be ""
  "tesis-usach.lot" 1461088466 410 4b6e582a14d3a724557374f74f83af9f ""
  "tesis-usach.out" 1461088466 2343 07f9258dc05a512f90579a1e91749573 ""
  "tesis-usach.tex" 1461081719 1940 579a81832835b58c575bfbcb6853f584 ""
  "tesis-usach.toc" 1461088466 2687 47cac5b1bff74a27ff05a7bab2bc4ba3 ""
  (generated)
  "preliminares/abstract.aux"
  "chapters/1-Introduccion.aux"
  "chapters/2-Cuerpo.aux"
  "preliminares/dedicatoria.aux"
  "preliminares/cubierta.aux"
  "anexos/Anexo-1.aux"
  "tesis-usach.loa"
  "tesis-usach.pdf"
  "tesis-usach.log"
  "tesis-usach.lof"
  "tesis-usach.lot"
  "tesis-usach.toc"
  "tesis-usach.out"
  "tesis-usach.aux"
  "chapters/3-Conclusiones.aux"
  "preliminares/agradecimiento.aux"
